Time,Ti,Tc,Th,Tout
2,5150000,952699,0,0
3,3176000,908621,0,0
4,1247040,655535,0,0
1,760294,471130,0,0
2,420992,317006,0,4351087
3,279870,211644,0,701370
4,216950,152311,2021762,331962
5,172818,122918,544882,186765
6,163175,104852,346078,153560
